{
  "builders": [{
    "type": "virtualbox-iso",
    "guest_os_type": "Ubuntu_64",
    "iso_url": "{{user `mirror`}}/ubuntu-16.04.5-server-amd64.iso",
    "iso_checksum": "{{user `iso_checksum`}}",
    "iso_checksum_type": "{{user `iso_checksum_type`}}",
    "output_directory": "packer_output/output-ubuntu-16.04.5-server-amd64-{{build_type}}",
    "vm_name": "packer-ubuntu-16.04.5-server-amd64",
    "disk_size": "{{user `disk_size`}}",
    "headless": "{{user `headless`}}",
    "http_directory": "http",
    "boot_wait": "5s",
    "boot_command": [
        "<enter><wait><f6><esc><bs><bs><bs><bs><bs><bs><bs><bs><bs><bs><bs><bs><bs><bs><bs><bs><bs>",
        "<bs><bs><bs><bs><bs><bs><bs><bs><bs><bs><bs><bs><bs><bs><bs><bs><bs><bs><bs><bs><bs><bs>",
        "<bs><bs><bs><bs><bs><bs><bs><bs><bs><bs><bs><bs><bs><bs><bs><bs><bs><bs><bs><bs><bs><bs>",
        "<bs><bs><bs><bs><bs><bs><bs><bs><bs><bs><bs><bs><bs><bs><bs><bs><bs><bs><bs><bs><bs><bs>",
      "/install/vmlinuz ",
      "initrd=/install/initrd.gz ",
      "net.ifnames=0 ",
      "auto-install/enable=true ",
      "debconf/priority=critical ",
      " preseed/url=http://{{.HTTPIP}}:{{.HTTPPort}}/ubuntu-16.04.5/preseed.cfg",
      "<enter>"
    ],
    "ssh_timeout": "{{user `ssh_timeout`}}",
    "ssh_username": "vagrant",
    "ssh_password": "vagrant",
    "shutdown_command": "sudo systemctl poweroff",
    "vboxmanage": [
      ["modifyvm", "{{.Name}}", "--memory", "{{user `memory`}}"],
      ["modifyvm", "{{.Name}}", "--cpus", "{{user `cpus`}}"]
    ]
  }],
  "provisioners": [{
    "type": "shell",
    "scripts": [
      "scripts/packer_scripts/ubuntu/apt.sh",
      "scripts/packer_scripts/ubuntu/virtualbox.sh",
      "scripts/packer_scripts/common/vagrant.sh",
      "scripts/packer_scripts/common/sshd.sh",
      "scripts/packer_scripts/common/ansible_min.sh",
      "scripts/packer_scripts/ubuntu/cleanup.sh",
      "scripts/packer_scripts/common/clean_fs.sh",
      "scripts/packer_scripts/common/minimize.sh"
    ]}
  ],
  "post-processors": [{
    "type": "vagrant",
    "compression_level": "{{user `compression_level`}}",
    "output": "packer_output/ubuntu-16.04.5-server-amd64-{{.Provider}}.box"
  }],
  "variables": {
    "compression_level": "9",
    "cpus": "2",
    "disk_size": "20000",
    "headless": "false",
    "iso_checksum": "c94de1cc2e10160f325eb54638a5b5aa38f181d60ee33dae9578d96d932ee5f8",
    "iso_checksum_type": "sha256",
    "memory": "1024",
    "mirror": "file:///Users/alisadat/Downloads/downloadCache/ISO",
    "ssh_timeout": "10m"
  }
}
